<?xml version="1.0" encoding="UTF-8" standalone="no"?>
<svg
   xmlns:dc="http://purl.org/dc/elements/1.1/"
   xmlns:cc="http://creativecommons.org/ns#"
   xmlns:rdf="http://www.w3.org/1999/02/22-rdf-syntax-ns#"
   xmlns:svg="http://www.w3.org/2000/svg"
   xmlns="http://www.w3.org/2000/svg"
   xmlns:sodipodi="http://sodipodi.sourceforge.net/DTD/sodipodi-0.dtd"
   xmlns:inkscape="http://www.inkscape.org/namespaces/inkscape"
   version="1.1"
   width="64"
   height="64"
   viewBox="-0.956 0 64 64"
   id="svg3765"
   sodipodi:docname="Triskele-Symbol1.svg"
   inkscape:export-filename="/home/void/Desktop/icon.png"
   inkscape:export-xdpi="96"
   inkscape:export-ydpi="96"
   inkscape:version="0.92.3 (2405546, 2018-03-11)">
  <defs
     id="defs3769" />
  <sodipodi:namedview
     pagecolor="#ffffff"
     bordercolor="#666666"
     borderopacity="1"
     objecttolerance="10"
     gridtolerance="10"
     guidetolerance="10"
     inkscape:pageopacity="0"
     inkscape:pageshadow="2"
     inkscape:window-width="1920"
     inkscape:window-height="1012"
     id="namedview3767"
     showgrid="false"
     inkscape:zoom="8"
     inkscape:cx="26.174322"
     inkscape:cy="27.154585"
     inkscape:window-x="0"
     inkscape:window-y="0"
     inkscape:window-maximized="1"
     inkscape:current-layer="svg3765" />
  <metadata
     id="metadata3761">
    <rdf:RDF>
      <cc:Work
         rdf:about="">
        <dc:format>image/svg+xml</dc:format>
        <dc:type
           rdf:resource="http://purl.org/dc/dcmitype/StillImage" />
        <dc:title></dc:title>
      </cc:Work>
    </rdf:RDF>
  </metadata>
  <path
     d="m 28.498851,7.383056 c 6.45534,-0.6534005 12.12597,3.64356 12.68838,9.62874 0.40914,4.353749 -1.66968,7.745309 -4.76937,9.268829 -3.34251,1.64304 -6.9687,0.612 -8.72892,-1.25982 -2.81241,-2.99079 -1.4328,-8.718299 2.51973,-8.368919 0.6534,0.0576 2.18133,0.60444 1.97973,2.069729 -0.1602,1.16496 -1.6254,0.48204 -1.79982,1.70982 -0.1638,1.15146 0.96822,1.95435 1.88973,2.06973 1.89819,0.2376 3.03381,-0.96192 3.59955,-1.97982 1.85436,-3.335759 -0.76302,-6.959519 -3.59955,-8.009009 -5.72517,-2.11806 -11.30562,3.0492 -10.88865,9.268829 0.31446,4.69053 3.27492,7.7895 7.1091,9.26883 2.14128,0.8262 4.69899,1.0791 7.1091,0.54 2.21517,-0.49572 4.27734,-1.42992 6.74919,-1.43982 4.72131,-0.018 7.79427,1.63962 10.07865,3.68955 2.75346,2.4705 5.06115,6.27309 4.67946,11.51847 -0.35406,4.86225 -3.61098,8.72028 -7.5591,10.25874 -6.70086,2.61126 -13.78386,-1.65834 -13.8582,-8.27901 -0.054,-4.77423 4.13568,-8.96922 8.81883,-7.28901 1.5102,0.54198 2.76516,1.96119 3.05964,3.32955 0.66636,3.09501 -2.05362,4.491 -3.23955,3.59955 -0.9846,-0.74034 0.3123,-1.57014 -0.45,-2.42973 -1.21356,-1.36854 -3.4011,0.43488 -3.50955,2.33973 -0.1368,2.41686 1.85616,3.94902 3.05964,4.40946 2.45529,0.93942 4.82454,-0.1386 6.11919,-1.17 1.43406,-1.14282 2.61396,-3.10869 2.78964,-5.21928 0.2718,-3.26421 -1.24902,-5.84136 -2.96955,-7.3791 -1.87425,-1.6749 -4.27608,-2.76768 -7.73901,-2.51964 -5.10741,0.36576 -8.66277,4.10085 -9.98874,8.00901 -0.87966,2.59272 -1.08414,4.6494 -2.24973,6.7491 -2.89998,5.22423 -9.96507,10.10097 -18.08775,6.7491 -3.6092699,-1.48932 -7.3424701,-5.02038 -7.7390101,-10.16865 -0.40302,-5.23269 2.35845,-9.24705 5.8492802,-10.88865 4.7195099,-2.2194 9.4913999,-0.1044 11.3385599,2.96964 1.404,2.33658 1.2501,6.32097 -0.81,8.27892 -1.55754,1.48032 -3.93732,1.73196 -5.48928,0.9 -1.76976,-0.94878 -2.14029,-3.92418 -0.54,-4.31946 1.26126,-0.31158 0.98892,0.97038 2.15973,0.81 1.95579,-0.26838 1.18728,-3.64446 -0.71982,-4.49946 -3.46374,-1.55268 -6.6531599,1.70658 -7.0190999,4.58946 -0.39996,3.15117 1.20834,5.38848 2.7896399,6.6591 1.31166,1.05408 3.23298,2.00934 5.57928,1.97982 5.6304,-0.0702 10.32561,-4.97583 9.80874,-11.78856 -0.31212,-4.11309 -2.54187,-6.32133 -5.21937,-8.99883 -2.30301,-2.30292 -4.35987,-5.34231 -4.67946,-9.44883 -0.36018,-4.629239 1.10142,-7.998299 3.05964,-10.438649 1.90935,-2.37924 5.031,-4.38597 8.81901,-4.76928 z"
     id="path3763"
     inkscape:connector-curvature="0"
     style="fill:#4f4f4f;fill-opacity:1;stroke:none;stroke-width:0.09;stroke-opacity:1;image-rendering:auto"
     inkscape:export-xdpi="96"
     inkscape:export-ydpi="96" />
</svg>
