[gd_scene load_steps=3 format=2]

[ext_resource path="res://Assets/Themes/Theme.tres" type="Theme" id=1]
[ext_resource path="res://Scenes/Nodes/Expression.gd" type="Script" id=2]

[node name="Expression" type="GraphNode" groups=[
"trisnode",
]]
margin_right = 240.0
margin_bottom = 60.0
theme = ExtResource( 1 )
title = "Expression"
show_close = true
resizable = true
slot/0/left_enabled = true
slot/0/left_type = 0
slot/0/left_color = Color( 1, 1, 1, 1 )
slot/0/right_enabled = true
slot/0/right_type = 0
slot/0/right_color = Color( 1, 1, 1, 1 )
script = ExtResource( 2 )
__meta__ = {
"_edit_use_anchors_": false
}

[node name="LineEdit" type="LineEdit" parent="."]
margin_left = 28.0
margin_top = 24.0
margin_right = 212.0
margin_bottom = 55.0
placeholder_text = "Expression"
[connection signal="close_request" from="." to="." method="_on_close_request"]
[connection signal="dragged" from="." to="." method="_on_node_dragged"]
[connection signal="resize_request" from="." to="." method="_on_Expression_resize_request"]
[connection signal="focus_exited" from="LineEdit" to="." method="_on_LineEdit_focus_exited"]
[connection signal="text_entered" from="LineEdit" to="." method="_on_LineEdit_text_entered"]
