[gd_scene load_steps=3 format=2]

[ext_resource path="res://Assets/Themes/Theme.tres" type="Theme" id=1]
[ext_resource path="res://Scenes/Nodes/Options.gd" type="Script" id=2]

[node name="Options" type="GraphNode" groups=[
"trisnode",
]]
margin_right = 240.0
margin_bottom = 80.0
theme = ExtResource( 1 )
title = "Options"
show_close = true
resizable = true
slot/0/left_enabled = true
slot/0/left_type = 0
slot/0/left_color = Color( 1, 1, 1, 1 )
slot/0/right_enabled = false
slot/0/right_type = 0
slot/0/right_color = Color( 1, 1, 1, 1 )
script = ExtResource( 2 )
__meta__ = {
"_edit_use_anchors_": false
}

[node name="Buttons" type="HBoxContainer" parent="."]
margin_left = 28.0
margin_top = 24.0
margin_right = 212.0
margin_bottom = 55.0

[node name="VSeparator" type="VSeparator" parent="Buttons"]
margin_right = 110.0
margin_bottom = 31.0
size_flags_horizontal = 3
size_flags_stretch_ratio = 7.0

[node name="UseConditions" type="CheckBox" parent="Buttons"]
margin_left = 114.0
margin_right = 138.0
margin_bottom = 31.0
hint_tooltip = "Whether or not this option should use conditions."

[node name="Add" type="Button" parent="Buttons"]
margin_left = 142.0
margin_right = 163.0
margin_bottom = 31.0
size_flags_horizontal = 3
text = "+"

[node name="Delete" type="Button" parent="Buttons"]
margin_left = 167.0
margin_right = 184.0
margin_bottom = 31.0
size_flags_horizontal = 3
text = "-"
[connection signal="close_request" from="." to="." method="_on_close_request"]
[connection signal="dragged" from="." to="." method="_on_node_dragged"]
[connection signal="resize_request" from="." to="." method="_on_resize_request"]
[connection signal="toggled" from="Buttons/UseConditions" to="." method="_on_UseConditions_toggled"]
[connection signal="pressed" from="Buttons/Add" to="." method="_on_Add_pressed"]
[connection signal="pressed" from="Buttons/Delete" to="." method="_on_Delete_pressed"]
