[gd_scene load_steps=3 format=2]

[ext_resource path="res://Assets/Themes/Theme.tres" type="Theme" id=1]
[ext_resource path="res://Scenes/Nodes/Start.gd" type="Script" id=2]

[node name="Start" type="GraphNode" groups=[
"trisnode",
]]
margin_right = 32.0
margin_bottom = 29.0
theme = ExtResource( 1 )
title = "Start"
slot/0/left_enabled = false
slot/0/left_type = 0
slot/0/left_color = Color( 1, 1, 1, 1 )
slot/0/right_enabled = true
slot/0/right_type = 0
slot/0/right_color = Color( 1, 1, 1, 1 )
script = ExtResource( 2 )

[node name="Label" type="Label" parent="."]
margin_left = 28.0
margin_top = 24.0
margin_right = 73.0
margin_bottom = 55.0
text = "Start"
